areas,betas
fusiform L,-0.00645562160835079
inferiorparietal L,-0.00743449719609772
isthmuscingulate L,-0.00952574502619208
isthmuscingulate R,-0.0070767550177747
lingual L,0.011039119243045
lingual R,0.0165134870578002
paracentral L,0.0125672286089236
paracentral R,0.0131640695720295
parahippocampal L,0.0116330834987285
parstriangularis L,-0.0132722610984828
parstriangularis R,-0.00657146688624462
pericalcarine L,0.0143844666638259
postcentral R,0.0123643462071862
posteriorcingulate R,0.011677943117376
precentral R,0.0124664998165861
precuneus L,-0.00882129010941562
rostralanteriorcingulate L,-0.0103074753767526
superiorparietal L,-0.010318710258754
