areas,betas
caudalanteriorcingulate R,-0.00999632216353359
cuneus L,-0.0119369337495588
frontalpole L,0.00597391615992166
fusiform R,-0.0114015790070785
inferiorparietal L,-0.0135342286570053
inferiorparietal R,-0.010117259161588
inferiortemporal L,-0.0106628820703673
insula R,0.00898392226997944
lingual R,0.00617064377091809
medialorbitofrontal L,-0.0101104133180388
middletemporal L,-0.00945756410069722
paracentral R,0.00731604397620348
parsorbitalis L,-0.0149831471331445
parsorbitalis R,-0.0102536540302054
parstriangularis R,0.00565570955797105
postcentral L,0.00924938593042231
postcentral R,0.00690377641937527
precentral R,0.00632903020911241
superiortemporal R,0.00753735625065044
transversetemporal R,0.0063398840876313
