areas,betas
caudalmiddlefrontal R,-0.0229284724874431
cuneus R,0.017086979888076
frontalpole R,0.0190458886701794
lateraloccipital L,0.0161078875970196
lingual R,0.0167651462103826
middletemporal L,0.0176292093977322
middletemporal R,-0.0226209971092581
paracentral R,-0.0231161651824305
parsorbitalis R,0.0189520615174272
parstriangularis R,-0.0295346350145311
postcentral R,-0.027345799084827
posteriorcingulate R,-0.0259002861854405
precentral R,-0.0295158153734047
precuneus R,0.0221478818417835
rostralmiddlefrontal R,0.0199608557623396
supramarginal R,-0.0219151490758759
