areas,betas
frontalpole L,-0.0243771023962355
fusiform L,-0.0217179980066205
isthmuscingulate L,-0.0187265104436326
paracentral L,0.0203468699239022
parsorbitalis L,0.0250402235589798
pericalcarine R,0.0420687572819484
rostralmiddlefrontal L,0.0338166074865017
superiorfrontal L,-0.0198370406306121
superiorfrontal R,-0.0215649157727992
superiorparietal R,0.0331431577883038
superiortemporal R,-0.0300060431981386
temporalpole L,0.0219883219660919
