areas,betas
caudalmiddlefrontal L,-0.00612661626071169
fusiform R,-0.00864428396752469
inferiorparietal L,-0.00961304886912504
insula L,-0.00679250366853554
lateraloccipital L,0.00758884074689876
lateralorbitofrontal L,-0.00938957205922512
lateralorbitofrontal R,0.0125489325351655
middletemporal R,0.00813484852344339
parahippocampal R,0.00927328916379754
parsorbitalis L,-0.00855192468951208
parsorbitalis R,0.0135603384729144
pericalcarine L,0.00801595274973164
superiorparietal L,-0.0113361309547477
