areas,betas
cuneus R,-0.0168383302684905
inferiorparietal R,-0.0185422134073306
insula R,0.0138266748681222
isthmuscingulate R,0.0166525744430022
lateraloccipital L,-0.0298717983767726
lingual L,-0.0153017960616296
pericalcarine L,-0.0196083062614787
pericalcarine R,-0.0291678202927101
postcentral R,0.0205958607946656
posteriorcingulate R,0.0121396831394542
precentral R,0.0185570127604101
superiortemporal R,0.0168009966977105
supramarginal R,0.0190646756511057
transversetemporal R,0.0178059482271785
