areas,betas,percentage
cuneus L,0.00622748684396039,97.7975723967268
inferiorparietal R,-0.00423669628655161,66.5338397637584
lateraloccipital L,-0.00579618259802596,91.0242930187548
parahippocampal L,0.00636773152067405,100
parsorbitalis R,-0.00440075850804337,69.110302369933
postcentral R,0.00385105945539168,60.4777296732516
precentral L,0.00428820137047789,67.342684856537
superiorparietal R,-0.00513609224256843,80.6581154669153
superiortemporal R,0.0040480410401014,63.5711638745866
transversetemporal L,0.0052104540061491,81.8259059640372
